11:18:09.062: CPU Name: AMD E2-7110 APU with AMD Radeon R2 Graphics
11:18:09.062: CPU Speed: 1749.448MHz
11:18:09.062: Physical Cores: 4, Logical Cores: 4
11:18:09.062: Physical Memory: 10921MB Total, 6043MB Free
11:18:09.062: Kernel Version: Linux 5.4.44-1-lts
11:18:09.062: Distribution: "Arch Linux" Unknown
11:18:09.063: Window System: X11.0, Vendor: The X.Org Foundation, Version: 1.20.8
11:18:09.066: Portable mode: false
11:18:09.308: OBS 25.0.8-1 (linux)
11:18:09.308: ---------------------------------
11:18:09.310: ---------------------------------
11:18:09.310: audio settings reset:
11:18:09.310: 	samples per sec: 44100
11:18:09.310: 	speakers:        2
11:18:09.341: ---------------------------------
11:18:09.341: Initializing OpenGL...
11:18:09.762: Loading up OpenGL on adapter X.Org AMD KABINI (DRM 2.50.0, 5.4.44-1-lts, LLVM 10.0.0)
11:18:09.763: OpenGL loaded successfully, version 4.5 (Core Profile) Mesa 20.0.7, shading language 4.50
11:18:09.818: ---------------------------------
11:18:09.818: video settings reset:
11:18:09.818: 	base resolution:   1280x720
11:18:09.818: 	output resolution: 1280x720
11:18:09.818: 	downscale filter:  Bicubic
11:18:09.818: 	fps:               30/1
11:18:09.818: 	format:            NV12
11:18:09.818: 	YUV mode:          601/Partial
11:18:09.819: NV12 texture support not available
11:18:09.835: Audio monitoring device:
11:18:09.835: 	name: Predefinito
11:18:09.835: 	id: default
11:18:09.835: ---------------------------------
11:18:09.844: Failed to load 'en-US' text for module: 'decklink-ouput-ui.so'
11:18:10.150: A DeckLink iterator could not be created.  The DeckLink drivers may not be installed
11:18:10.150: No blackmagic support
11:18:10.231: os_dlopen(libnvidia-encode.so.1->libnvidia-encode.so.1): libnvidia-encode.so.1: impossibile aprire il file oggetto condiviso: File o directory non esistente
11:18:10.231: 
11:18:10.231: FFMPEG VAAPI supported
11:18:10.290: VLC found, VLC video source enabled
11:18:10.290: ---------------------------------
11:18:10.290:   Loaded Modules:
11:18:10.290:     vlc-video.so
11:18:10.290:     text-freetype2.so
11:18:10.290:     rtmp-services.so
11:18:10.290:     obs-x264.so
11:18:10.291:     obs-transitions.so
11:18:10.291:     obs-outputs.so
11:18:10.291:     obs-libfdk.so
11:18:10.291:     obs-filters.so
11:18:10.291:     obs-ffmpeg.so
11:18:10.291:     linux-v4l2.so
11:18:10.291:     linux-pulseaudio.so
11:18:10.291:     linux-jack.so
11:18:10.291:     linux-decklink.so
11:18:10.291:     linux-capture.so
11:18:10.291:     linux-alsa.so
11:18:10.291:     image-source.so
11:18:10.291:     frontend-tools.so
11:18:10.291:     decklink-ouput-ui.so
11:18:10.291: ---------------------------------
11:18:10.291: ==== Startup complete ===============================================
11:18:10.303: All scene data cleared
11:18:10.304: ------------------------------------------------
11:18:10.312: pulse-input: Server name: 'pulseaudio 13.0'
11:18:10.312: pulse-input: Audio format: s16le, 44100 Hz, 2 channels
11:18:10.312: pulse-input: Started recording from 'alsa_output.usb-Burr-Brown_from_TI_USB_Audio_CODEC-00.analog-stereo.monitor'
11:18:10.313: [Loaded global audio device]: 'Audio del desktop'
11:18:10.313: v4l2-input: Start capture from /dev/video0
11:18:10.315: v4l2-input: Input: 0
11:18:10.315: v4l2-input: Resolution: 1280x960
11:18:10.315: v4l2-input: Pixelformat: VYUY
11:18:10.315: v4l2-input: Linesize: 2560 Bytes
11:18:10.315: v4l2-input: Framerate: 30,00 fps
11:18:10.319: xshm-input: Geometry 1366x768 @ 0,0
11:18:10.381: pulse-input: Server name: 'pulseaudio 13.0'
11:18:10.381: pulse-input: Audio format: s16le, 48000 Hz, 1 channels
11:18:10.382: pulse-input: Started recording from 'ipwebcam.monitor'
11:18:10.434: Switched to scene 'Webcam e Voce'
11:18:10.434: ------------------------------------------------
11:18:10.434: Loaded scenes:
11:18:10.434: - scene 'Schermo RAW':
11:18:10.434:     - source: 'Cattura dello schermo (XSHM)' (xshm_input)
11:18:10.434: - scene 'Webcam RAW':
11:18:10.434:     - source: 'Dispositivo di acquisizione video (V4L2)' (v4l2_input)
11:18:10.435: - scene 'Webcam e Voce':
11:18:10.450:     - source: 'Ingresso di acquisizione audio (PulseAudio)' (pulse_input_capture)
11:18:10.450:         - filter: 'Riduzione del rumore' (noise_suppress_filter)
11:18:10.450:     - source: 'Webcam RAW' (scene)
11:18:10.450: - scene 'Webcam con LOGO':
11:18:10.450:     - source: 'Webcam e Voce' (scene)
11:18:10.450:     - source: 'Immagine 2' (image_source)
11:18:10.450: - scene 'Immagine':
11:18:10.450:     - source: 'Testo (FreeType 2)' (text_ft2_source_v2)
11:18:10.450: - scene 'Schermo con Webcam DX':
11:18:10.450:     - source: 'Cattura dello schermo (XSHM)' (xshm_input)
11:18:10.450:     - source: 'Webcam e Voce' (scene)
11:18:10.450: - scene 'Schermo con Webcam SX':
11:18:10.450:     - source: 'Cattura dello schermo (XSHM)' (xshm_input)
11:18:10.450:     - source: 'Webcam e Voce' (scene)
11:18:10.450: - scene 'Schermo e Voce':
11:18:10.450:     - source: 'Cattura dello schermo (XSHM)' (xshm_input)
11:18:10.450:     - source: 'Ingresso di acquisizione audio (PulseAudio)' (pulse_input_capture)
11:18:10.450:         - filter: 'Riduzione del rumore' (noise_suppress_filter)
11:18:10.450: ------------------------------------------------
11:18:10.875: adding 46 milliseconds of audio buffering, total audio buffering is now 46 milliseconds (source: Audio del desktop)
11:18:10.875: 
11:18:12.102: adding 23 milliseconds of audio buffering, total audio buffering is now 69 milliseconds (source: Ingresso di acquisizione audio (PulseAudio))
11:18:12.102: 
11:22:04.378: ---------------------------------
11:22:04.379: [FFMPEG VAAPI encoder: 'streaming_h264'] settings:
11:22:04.379: 	device:       /dev/dri/renderD128
11:22:04.379: 	rate_control: CBR
11:22:04.379: 	profile:      578
11:22:04.379: 	level:        40
11:22:04.379: 	qp:           0
11:22:04.379: 	bitrate:      1000
11:22:04.379: 	maxrate:      1000
11:22:04.379: 	keyint:       60
11:22:04.379: 	width:        1280
11:22:04.379: 	height:       720
11:22:04.379: 	b-frames:     0
11:22:04.379: 
11:22:04.449: libfdk_aac encoder created
11:22:04.449: libfdk_aac bitrate: 160, channels: 2
11:22:04.450: [rtmp stream: 'adv_stream'] Connecting to RTMP URL rtmp://a.rtmp.youtube.com/live2...
11:22:05.562: [rtmp stream: 'adv_stream'] Connection to rtmp://a.rtmp.youtube.com/live2 successful
11:22:05.563: ==== Streaming Start ===============================================
12:23:20.243: WriteN, RTMP send error 110 (2820 bytes)
12:23:20.243: WriteN, RTMP send error 32 (54 bytes)
12:23:20.243: WriteN, RTMP send error 9 (42 bytes)
12:23:20.243: [rtmp stream: 'adv_stream'] Disconnected from rtmp://a.rtmp.youtube.com/live2
12:23:20.243: Output 'adv_stream': stopping
12:23:20.244: Output 'adv_stream': Total frames output: 80819 (110248 attempted)
12:23:20.244: Output 'adv_stream': Total drawn frames: 110119 (110287 attempted)
12:23:20.244: Output 'adv_stream': Number of lagged frames due to rendering lag/stalls: 168 (0,2%)
12:23:20.244: Output 'adv_stream': Number of dropped frames due to insufficient bandwidth/connection stalls: 29429 (26,7%)
12:23:20.244: Output 'adv_stream':  Reconnecting in 10 seconds..
12:23:20.244: [rtmp stream: 'adv_stream'] Freeing 41106 remaining packets
12:23:20.247: libfdk_aac encoder destroyed
12:23:30.244: ---------------------------------
12:23:30.244: [FFMPEG VAAPI encoder: 'streaming_h264'] settings:
12:23:30.244: 	device:       /dev/dri/renderD128
12:23:30.244: 	rate_control: CBR
12:23:30.244: 	profile:      578
12:23:30.244: 	level:        40
12:23:30.244: 	qp:           0
12:23:30.244: 	bitrate:      1000
12:23:30.244: 	maxrate:      1000
12:23:30.244: 	keyint:       60
12:23:30.244: 	width:        1280
12:23:30.244: 	height:       720
12:23:30.244: 	b-frames:     0
12:23:30.244: 
12:23:30.277: libfdk_aac encoder created
12:23:30.277: libfdk_aac bitrate: 160, channels: 2
12:23:30.278: [rtmp stream: 'adv_stream'] Connecting to RTMP URL rtmp://a.rtmp.youtube.com/live2...
12:23:31.525: [rtmp stream: 'adv_stream'] Connection to rtmp://a.rtmp.youtube.com/live2 successful
12:23:48.186: [rtmp stream: 'adv_stream'] User stopped the stream
12:23:48.186: Output 'adv_stream': stopping
12:23:48.186: Output 'adv_stream': Total frames output: 442 (495 attempted)
12:23:48.186: Output 'adv_stream': Total drawn frames: 538
12:23:48.186: Output 'adv_stream': Number of dropped frames due to insufficient bandwidth/connection stalls: 53 (10,7%)
12:23:48.188: ==== Streaming Stop ================================================
12:23:48.189: libfdk_aac encoder destroyed
12:23:55.736: ==== Shutting down ==================================================
12:23:55.743: Switched to scene '(null)'
12:23:55.746: pulse-input: Stopped recording from 'ipwebcam.monitor'
12:23:55.746: pulse-input: Got 391660 packets with 189394866 frames
12:23:55.762: v4l2-input: Stopped capture after 118378 frames
12:23:56.426: pulse-input: Stopped recording from 'alsa_output.usb-Burr-Brown_from_TI_USB_Audio_CODEC-00.analog-stereo.monitor'
12:23:56.426: pulse-input: Got 1660407 packets with 174037948 frames
12:23:56.434: All scene data cleared
12:23:56.434: ------------------------------------------------
12:23:56.538: Freeing OBS context data
12:23:56.566: [Scripting] Total detached callbacks: 0
12:23:56.618: == Profiler Results =============================
12:23:56.619: run_program_init: 1972,79 ms
12:23:56.619:  ┣OBSApp::AppInit: 12,196 ms
12:23:56.619:  ┃ ┗OBSApp::InitLocale: 6,393 ms
12:23:56.619:  ┗OBSApp::OBSInit: 1829,68 ms
12:23:56.619:    ┣obs_startup: 23,951 ms
12:23:56.619:    ┗OBSBasic::OBSInit: 1561,94 ms
12:23:56.619:      ┣OBSBasic::InitBasicConfig: 0,953 ms
12:23:56.619:      ┣OBSBasic::ResetAudio: 0,447 ms
12:23:56.619:      ┣OBSBasic::ResetVideo: 523,859 ms
12:23:56.619:      ┣OBSBasic::InitOBSCallbacks: 0,011 ms
12:23:56.619:      ┣OBSBasic::InitHotkeys: 0,087 ms
12:23:56.619:      ┣obs_load_all_modules: 455,412 ms
12:23:56.619:      ┃ ┣obs_init_module(decklink-ouput-ui.so): 1,984 ms
12:23:56.619:      ┃ ┣obs_init_module(frontend-tools.so): 255,019 ms
12:23:56.619:      ┃ ┣obs_init_module(image-source.so): 0,019 ms
12:23:56.619:      ┃ ┣obs_init_module(linux-alsa.so): 0,005 ms
12:23:56.619:      ┃ ┣obs_init_module(linux-capture.so): 0,711 ms
12:23:56.619:      ┃ ┣obs_init_module(linux-decklink.so): 0,497 ms
12:23:56.619:      ┃ ┣obs_init_module(linux-jack.so): 0,02 ms
12:23:56.619:      ┃ ┣obs_init_module(linux-pulseaudio.so): 0,01 ms
12:23:56.619:      ┃ ┣obs_init_module(linux-v4l2.so): 0,007 ms
12:23:56.619:      ┃ ┣obs_init_module(obs-ffmpeg.so): 6,059 ms
12:23:56.619:      ┃ ┃ ┗nvenc_check: 5,931 ms
12:23:56.619:      ┃ ┣obs_init_module(obs-filters.so): 0,053 ms
12:23:56.619:      ┃ ┣obs_init_module(obs-libfdk.so): 0,008 ms
12:23:56.619:      ┃ ┣obs_init_module(obs-outputs.so): 0,006 ms
12:23:56.619:      ┃ ┣obs_init_module(obs-transitions.so): 0,026 ms
12:23:56.619:      ┃ ┣obs_init_module(obs-x264.so): 0,005 ms
12:23:56.619:      ┃ ┣obs_init_module(rtmp-services.so): 1,439 ms
12:23:56.619:      ┃ ┣obs_init_module(text-freetype2.so): 0,05 ms
12:23:56.619:      ┃ ┗obs_init_module(vlc-video.so): 12,138 ms
12:23:56.619:      ┣OBSBasic::ResetOutputs: 1,164 ms
12:23:56.619:      ┣OBSBasic::CreateHotkeys: 0,669 ms
12:23:56.619:      ┣OBSBasic::InitService: 5,835 ms
12:23:56.620:      ┣OBSBasic::InitPrimitives: 0,576 ms
12:23:56.620:      ┗OBSBasic::Load: 174,437 ms
12:23:56.620: obs_hotkey_thread(25 ms): min=0,221 ms, median=0,67 ms, max=185,977 ms, 99th percentile=10,728 ms, 99,8896% below 25 ms
12:23:56.620: audio_thread(Audio): min=0,001 ms, median=1,664 ms, max=45,902 ms, 99th percentile=8,454 ms
12:23:56.620:  ┗receive_audio: min=0,004 ms, median=1,161 ms, max=33,847 ms, 99th percentile=6,384 ms
12:23:56.620:    ┣buffer_audio: min=0,001 ms, median=0,003 ms, max=5,123 ms, 99th percentile=0,008 ms
12:23:56.620:    ┗do_encode: min=0,257 ms, median=1,147 ms, max=33,831 ms, 99th percentile=6,351 ms
12:23:56.620:      ┗encode(avc_aac_stream): min=0,202 ms, median=1,048 ms, max=31,391 ms, 99th percentile=4,879 ms
12:23:56.620: obs_graphics_thread(33,3333 ms): min=0,303 ms, median=13,818 ms, max=189,511 ms, 99th percentile=34,862 ms, 98,7559% below 33,333 ms
12:23:56.620:  ┣tick_sources: min=0,001 ms, median=0,04 ms, max=111,23 ms, 99th percentile=0,123 ms
12:23:56.620:  ┣output_frame: min=0,222 ms, median=9,801 ms, max=82,721 ms, 99th percentile=25,04 ms
12:23:56.621:  ┃ ┣gs_context(video->graphics): min=0,222 ms, median=8,925 ms, max=77,76 ms, 99th percentile=21,22 ms
12:23:56.621:  ┃ ┃ ┣render_video: min=0,051 ms, median=8,833 ms, max=73,86 ms, 99th percentile=21,002 ms
12:23:56.621:  ┃ ┃ ┃ ┣render_main_texture: min=0,041 ms, median=1,615 ms, max=35,322 ms, 99th percentile=4,893 ms
12:23:56.621:  ┃ ┃ ┃ ┣render_convert_texture: min=0,07 ms, median=0,079 ms, max=25,755 ms, 99th percentile=0,368 ms, 0,93529 calls per parent call
12:23:56.621:  ┃ ┃ ┃ ┗stage_output_texture: min=5,1 ms, median=7,108 ms, max=61,055 ms, 99th percentile=17,078 ms, 0,93529 calls per parent call
12:23:56.621:  ┃ ┃ ┣gs_flush: min=0,002 ms, median=0,005 ms, max=61,651 ms, 99th percentile=0,587 ms
12:23:56.621:  ┃ ┃ ┗download_frame: min=0 ms, median=0,033 ms, max=25,824 ms, 99th percentile=0,151 ms, 0,93529 calls per parent call
12:23:56.621:  ┃ ┗output_video_data: min=0,61 ms, median=0,851 ms, max=32,676 ms, 99th percentile=7,569 ms, 0,935274 calls per parent call
12:23:56.621:  ┗render_displays: min=0,009 ms, median=3,279 ms, max=73,346 ms, 99th percentile=15,564 ms
12:23:56.621: video_thread(video): min=0,002 ms, median=10,517 ms, max=87,953 ms, 99th percentile=21,434 ms
12:23:56.621:  ┗receive_video: min=7,497 ms, median=10,507 ms, max=60,052 ms, 99th percentile=21,151 ms
12:23:56.622:    ┗do_encode: min=7,494 ms, median=10,503 ms, max=60,046 ms, 99th percentile=21,148 ms
12:23:56.622:      ┗encode(streaming_h264): min=7,452 ms, median=10,257 ms, max=57,659 ms, 99th percentile=20,414 ms
12:23:56.622: =================================================
12:23:56.622: == Profiler Time Between Calls ==================
12:23:56.622: obs_hotkey_thread(25 ms): min=25,303 ms, median=25,905 ms, max=464,946 ms, 3,80064% within ±2% of 25 ms (0% lower, 96,1994% higher)
12:23:56.622: obs_graphics_thread(33,3333 ms): min=8,831 ms, median=33,333 ms, max=189,548 ms, 93,1036% within ±2% of 33,333 ms (3,39155% lower, 3,50488% higher)
12:23:56.622: =================================================
12:23:57.530: Number of memory leaks: 1
